<?xml version="1.0" encoding="utf-8"?>
<!-- Generator: Adobe Illustrator 23.0.3, SVG Export Plug-In . SVG Version: 6.00 Build 0)  -->
<svg version="1.1" id="Calque_1" xmlns="http://www.w3.org/2000/svg" xmlns:xlink="http://www.w3.org/1999/xlink" x="0px" y="0px"
	 viewBox="0 0 185.8 105" style="enable-background:new 0 0 185.8 105;" xml:space="preserve">
<style type="text/css">
	.st0{fill:#FFFFFF;}
	.st1{fill:none;stroke:#000000;stroke-width:5;}
	.st2{fill:none;stroke:#000000;stroke-width:4;stroke-linecap:round;}
</style>
<g id="bouche" transform="translate(-535.76 -336)">
	<g id="Ellipse_1165" transform="translate(636.98 336)">
		<circle class="st0" cx="43.6" cy="52.5" r="38.5"/>
		<circle class="st1" cx="43.6" cy="52.5" r="36"/>
	</g>
	<path id="Tracé_3091" class="st2" d="M646.8,402.2c0,0-44.5,32.2-103.9,11.2"/>
</g>
</svg>
