<svg xmlns="http://www.w3.org/2000/svg" width="42.662" height="47.304" viewBox="0 0 42.662 47.304">
  <path id="Tracé_533" data-name="Tracé 533" d="M501.546-2.3c29.833,0,42.65-7.81,42.65-7.81a54.138,54.138,0,0,0-23.935,47.3C520.23,36.713,500.973-1.8,501.546-2.3Z" transform="translate(-501.534 10.106)" fill="#fff"/>
</svg>
