<?xml version="1.0" encoding="utf-8"?>
<!-- Generator: Adobe Illustrator 21.0.2, SVG Export Plug-In . SVG Version: 6.00 Build 0)  -->
<svg version="1.1" id="Calque_1" xmlns="http://www.w3.org/2000/svg" xmlns:xlink="http://www.w3.org/1999/xlink" x="0px" y="0px"
	 viewBox="0 0 680 680" style="enable-background:new 0 0 680 680;" xml:space="preserve">
<style type="text/css">
	.st0{fill:#9AF1E4;}
	.st1{fill:#BDE66F;}
	.st2{fill:#FDA736;}
	.st3{fill:#A6DA5A;}
	.st4{fill:#FD8F07;}
	.st5{opacity:0.1;enable-background:new    ;}
	.st6{fill:#FEF5E3;}
	.st7{fill:#AF4219;}
	.st8{fill:#FB5921;}
	.st9{fill:#D7531B;}
	.st10{fill:url(#SVGID_1_);}
	.st11{fill:url(#SVGID_2_);}
</style>
<g>
	<path d="M353.5,157.4L353.5,157.4L353.5,157.4c-4,0-7-3.2-7-7.2s3.2-7.1,7-7.1l0,0h0.1c3.9,0,7,3.2,7,7.2
		C360.4,154.2,357.4,157.4,353.5,157.4z"/>
	<path class="st0" d="M563.2,303l-10.1,10.1c0.1,1.9,0.2,3.8,0.3,5.7c0.1,2.8,0.2,5.6,0.2,8.3c0,8.8-0.5,17.6-1.5,26.1
		c-1.2,10.3-3.2,20.4-5.8,30.2c-3.7,14.2-8.8,27.8-15.3,40.7c-35.7,72.6-110.5,122.7-196.9,122.8l-25.6,27.2
		c-2.5,2.7-6.3,3.7-9.8,2.7l-68.6-20.4c-3.5-1-6.1-4-7-7.7l-7.3-36c-15.5-9.8-29.6-21.6-42.2-34.9c-11.6-12.3-21.8-25.9-30.3-40.7
		c-5.6-9.6-10.5-19.7-14.5-30.2c-4.3-11.1-7.8-22.6-10.3-34.5c-3.1-14.5-4.7-29.7-4.7-45.3c0-10.8,0.8-21.5,2.3-31.9
		c3.3-23.3,10.4-45.2,20.4-65.5c12.2-24.5,28.8-46.5,48.7-64.8c39.1-35.9,91.2-57.7,148.4-57.7c9.1,0,18.1,0.6,26.8,1.7
		c13.7,1.7,27.1,4.6,39.9,8.7l17.6-12.9c3-2.1,7-2.5,10.2-0.7l31.4,16.3c3.2,1.7,5.3,5.1,5.4,8.9l0.5,22
		c11.7,8.8,22.7,18.8,32.4,29.7c3.9,4.3,7.5,8.8,11,13.3c12.6,16.6,22.9,35,30.4,54.8l9,1.9c3.6,0.7,6.5,3.5,7.5,7l9.9,34.7
		C566.8,296.5,565.8,300.4,563.2,303z"/>
	<path class="st1" d="M217.3,262.5c0,9.1-3.6,17.2-9.4,23.2c-5.8,5.9-13.7,9.6-22.6,9.6h-69.2c3.3-23.3,10.4-45.2,20.4-65.5h48.7
		C202.9,229.8,217.3,244.4,217.3,262.5z"/>
	<path class="st2" d="M360.4,109c-17.5,15.4-52,32-93.3,43.4c-30.8,8.6-59.8,12.8-81.9,12.6c39.1-35.9,91.3-57.7,148.4-57.7
		C342.7,107.3,351.7,107.9,360.4,109z"/>
	<path class="st2" d="M553.5,327.2c0,8.8-0.5,17.6-1.5,26.1c-1.2,10.3-3.2,20.4-5.8,30.2h-52.6c-0.8,0-1.6,0-2.4,0
		c-23.7,0-46.4,9.6-63.2,26.9c-16.8,17.2-39.5,26.9-63.2,26.9H143.3c-5.6-9.6-10.5-19.7-14.5-30.2c-4.3-11.1-7.8-22.6-10.3-34.5
		h246.2c23.7,0,46.5-9.6,63.2-26.9c16.8-17.2,39.5-26.9,63.2-26.9c0.8,0,1.6,0,2.4,0h59.8C553.4,321.6,553.5,324.4,553.5,327.2z"/>
	<path class="st1" d="M552,353.3c-3,25.2-10.2,49.1-20.9,70.9h-37.4c-6.8-0.2-13.5,0.5-20,1.8c-17.2,3.5-33,12.1-45.6,25.1
		c-8.4,8.6-18.2,15.3-29,19.9c-10.7,4.5-22.4,6.9-34.2,6.9H173.7c-19.2-20.4-34.6-44.4-44.9-70.9h236c23.7,0,46.5-9.6,63.2-26.9
		c16.8-17.2,39.5-26.9,63.2-26.9c0.8,0,1.6,0,2.4,0H552V353.3z"/>
	<path class="st1" d="M326,298.6c0,18.2-14.4,33-32.1,33c-17.8,0-32.1-14.7-32.1-33c0-18.2,14.4-33,32.1-33
		C311.6,265.7,326,280.5,326,298.6z"/>
	<path class="st3" d="M326,298.6c0,18.2-14.4,33-32.1,33c-3.3,0-6.5-0.6-9.6-1.5c13.1-4.2,22.6-16.7,22.6-31.5s-9.5-27.3-22.6-31.5
		c3-0.9,6.2-1.5,9.6-1.5C311.6,265.7,326,280.5,326,298.6z"/>
	<path class="st1" d="M274.8,216.8c0,11.5-9,20.8-20.2,20.8s-20.2-9.3-20.2-20.8s9-20.8,20.2-20.8
		C265.7,196.1,274.8,205.4,274.8,216.8z"/>
	<path class="st3" d="M274.8,216.8c0,11.5-9,20.8-20.2,20.8c-2.6,0-5.1-0.6-7.4-1.5c7.5-3.1,12.8-10.6,12.8-19.3
		s-5.3-16.2-12.8-19.3c2.3-0.9,4.8-1.5,7.4-1.5C265.7,196.1,274.8,205.4,274.8,216.8z"/>
	<path class="st1" d="M355.5,497.1c0,7.4-5.9,13.4-13.1,13.4s-13.1-6-13.1-13.4s5.9-13.4,13.1-13.4S355.5,489.7,355.5,497.1z"/>
	<path class="st3" d="M355.5,497.1c0,7.4-5.9,13.4-13.1,13.4c-1.5,0-3-0.3-4.3-0.7c5.1-1.9,8.8-6.9,8.8-12.7
		c0-5.8-3.7-10.8-8.8-12.7c1.4-0.5,2.8-0.7,4.3-0.7C349.6,483.6,355.5,489.7,355.5,497.1z"/>
	<path class="st1" d="M449.7,209.5c0,7.4-5.9,13.4-13.1,13.4s-13.1-6-13.1-13.4s5.9-13.4,13.1-13.4
		C443.8,196.1,449.7,202.1,449.7,209.5z"/>
	<path class="st3" d="M449.7,209.5c0,7.4-5.9,13.4-13.1,13.4c-1.7,0-3.4-0.4-5-1c4.8-2,8.1-6.9,8.1-12.4c0-5.7-3.3-10.5-8.1-12.4
		c1.5-0.6,3.2-1,5-1C443.8,196.1,449.7,202.1,449.7,209.5z"/>
	<path class="st3" d="M392.1,293.5h-31c-3.9,0-7-3.2-7-7.1s3.2-7.1,7-7.1h31c3.9,0,7,3.2,7,7.1S396,293.5,392.1,293.5z"/>
	<path class="st1" d="M508.8,194.4c-12.6,41.5-50.6,70.6-93.7,70.6h-72.7c-3.9,0-7-3.2-7-7.1c0-4,3.2-7.1,7-7.1h72.7
		c39.8,0,74.6-29,82.5-69c0.1-0.3,0.1-0.5,0.2-0.7C501.7,185.3,505.3,189.8,508.8,194.4z"/>
	<path class="st3" d="M341.6,172.2L341.6,172.2L341.6,172.2c-4,0-7-3.2-7-7.2s3.2-7.1,7-7.1l0,0h0.1c3.9,0,7,3.2,7,7.2
		S345.4,172.2,341.6,172.2z"/>
	<path class="st3" d="M309.3,511.4L309.3,511.4L309.3,511.4c-4,0-7-3.2-7-7.2s3.2-7.1,7-7.1l0,0h0.1c3.9,0,7,3.2,7,7.2
		C316.3,508.3,313.1,511.4,309.3,511.4z"/>
	<path class="st1" d="M360.5,314.8L360.5,314.8c-4,0-7-3.2-7-7.1c0-4,3.2-7.1,7-7.1h0.1c3.9,0,7,3.2,7,7.1
		C367.5,311.5,364.3,314.8,360.5,314.8z"/>
	<g>
		<path class="st4" d="M298.2,560.2c-1.1,0-2.3-0.3-3.3-0.8c-6.7-3.7-14.6-7.1-23-9.7c-10.7-3.4-21.5-5.4-30.3-5.7
			c-3.9-0.1-6.9-3.4-6.8-7.4s3.3-7,7.2-6.9c10.2,0.4,21.9,2.5,33.9,6.3c9.3,3,18.1,6.7,25.5,10.8c3.4,1.9,4.6,6.2,2.8,9.7
			C303,558.8,300.7,560.2,298.2,560.2z"/>
		<path class="st4" d="M445.1,151.6c-15.5,0-29.3-10.1-34.5-15.5c-2.7-2.8-2.7-7.3,0.1-10.1c2.7-2.8,7.1-2.8,9.8,0.1
			c2.8,2.9,13.3,11.2,24.6,11.2c3.9,0,7,3.2,7,7.1C452.1,148.5,448.9,151.6,445.1,151.6z"/>
		<path class="st4" d="M545.2,300.6c-1.7,0-3.5-0.6-4.9-2c-8.9-8.8-10.7-21.8-10.6-31.2c0.1-4,3.2-7.1,7-7c3.9,0.1,7,3.3,6.9,7.2
			c-0.1,5.4,0.6,15.2,6.2,20.7c2.8,2.8,2.9,7.2,0.2,10.1C548.9,299.9,547.1,300.6,545.2,300.6z"/>
	</g>
	<path class="st5" d="M563.2,303l-10.1,10.1c0.1,1.9,0.2,3.8,0.3,5.7c0.1,2.8,0.2,5.6,0.2,8.3c0,8.8-0.5,17.6-1.5,26.1
		c-1.2,10.3-3.2,20.4-5.8,30.2c-3.7,14.2-8.8,27.8-15.3,40.7c-35.7,72.6-110.5,122.7-196.9,122.8l-25.6,27.2
		c-2.5,2.7-6.3,3.7-9.8,2.7l-68.6-20.4c-3.5-1-6.1-4-7-7.7l-5.6-27.6c17.2,3.7,34.9,5.7,53.2,5.7c142.7,0,258.4-118.7,258.4-265.1
		c0-14-1.1-27.8-3.1-41.2c5.1,9.2,9.6,18.8,13.4,28.7l9,1.9c3.6,0.7,6.5,3.5,7.5,7l9.9,34.7C566.8,296.5,565.8,300.4,563.2,303z"/>
	<g>
		<path class="st6" d="M441.6,202.8c0,0-0.6,1.5,0.5,1.9s2.2-0.9,2.2-0.9s-0.3,2.2,1.1,2.4s2.3-1.3,2.3-1.3s-0.4,1.9,1.4,2.8
			c2,0.9,3.2-0.8,3.2-0.8s-0.6,1.3,0.6,2.2c1.4,1,2.6-0.4,2.6-0.4s0.5,3,1.9,3.4c1.4,0.5,2.7,0,2.7,0s-0.3,2.2,1.2,2.5
			c1.4,0.3,2.7-0.8,2.7-0.8s0.8,1.7,2.6,1.5c1.8-0.2,2-1.6,2-1.6s0.5,1.9,2.1,1.3c1.5-0.6,3.3-2.6,3.2-3c-0.1-0.4,0.2-1.6-1-1.9
			c-1.2-0.2-2.1-0.3-4.2-0.6c-2.2-0.3-3-0.1-5.2-1c-2.3-0.9-4.2-1.6-4.7-2.2s-4.3-2.6-4.7-2.5c-0.4,0.1-3.1-1.4-3.3-1.5
			c-0.2,0-2.3,0-2.5-0.2C447.8,201.8,442.1,201.9,441.6,202.8z"/>
		<path class="st7" d="M528.2,210.5c0,0,6,7.8,0.8,14.9c-5.1,7.1-16.8,1-16.8,1l-1.1-0.6l-1,1.5c0,0,6.9,4.6,13.2,3.6
			s10.1-6.6,9.6-11.6s-4.8-10.4-4.8-10.4L528.2,210.5L528.2,210.5z"/>
		<path class="st4" d="M471.8,212.1c0,0-6.4,2.8-13.2-2.2c-6.8-5-13-7.6-17.1-7.1c0,0,4.2-3.4,9.7-1.9s10.5,0.9,15.5,2.5
			c5.1,1.6,8.9,0.6,12.4-0.4c3.5-0.9,4.2-0.1,4.2,0.9s-7.8,2.5-7.8,4.4s7.1,4.8,10.8,4.6s14.1,2.2,19.9,5.5
			c5.8,3.2,8.4,4.5,11.1,4.8c2.7,0.4,2.3-1.2,3.3-1s0.3,1.1,0.3,1.1s1.4-0.1,1.6,0.7c0.2,0.7-1.9,0.6-1.9,0.6s0.5,1.7-0.1,1.8
			s-1.1-1.4-1.1-1.4s-4.4-0.6-6.9,1.4c-2.4,2-2.7,5.2-0.6,7c2,1.9,2.3,3.1,3.2,2.7c0,0,1.1-0.5,1.4,0.1c0.4,0.6-1.3,0.7-1.3,0.7
			s1.2,0.6,0.8,1.1c-0.4,0.6-1.3-0.6-1.3-0.6s-0.1,0.8-0.9,0.7c-1-0.1-0.2-1.5-0.2-1.5s-4.2-4.9-8.8-6.2s-8.2-1-15.6-7.3
			c-7.4-6.2-9.5-6.8-15.3-6.6s-13.8,2.5-18-4.3c0,0-0.6-0.8,0.1-1.2s2.2,2.9,5.8,3.4c3.7,0.6,6.4,0.6,8.1-0.6
			C471.8,213.1,473.5,211.7,471.8,212.1z"/>
		<path class="st8" d="M527.3,189.9c-2-1.8-16.4-2.8-23.3,0c-3.1,1.2-4.8,3.2-6,5.6c-0.3-1.6-2.5-1.6-2.1-2.1c1.3-1.5,1.7-3.1,1-3.7
			c-0.6-0.5-1.4,1.4-1.7,1.7c-0.4,0.4,0.2-3.1-0.6-3.4c-0.7-0.4-1.4,1.4-1.1,2.9c0.4,1.5-1.1-0.2-2.3,0.5s1.1,1.6,2,1.9
			c0.6,0.2,3.6,1.8,4.1,4.1c-0.8,2.2-2.5,5.4-3.1,7.6c0,0-3.4,12-21.8,19.1c-2.5,1-4,2.3-5.1,4.3l-3.5-0.2c0,0-0.6-2.7-1.4-2.5
			c-0.7,0.2-0.3,2-0.4,1.9s-2.9-0.3-3,0.6s2.5,1.1,2.5,1.1s-0.8,1.9,0.1,2.2c0.9,0.4,1.8-1.9,1.8-1.9s1.8,0.2,3.1,0.3
			c-2.3,6.2-3.4,22-1.6,21.4c2.2-0.6,3.1-7.4,4.5-10.8c1.4-3.4,5.5-2.7,12.7-3.4c7.1-0.8,10.5-9.6,13.7-14.3
			c3.2-4.6,8.6-7.9,12.6-14.3c4.1-6.4,0.6-9.3,5.6-14c5-4.7,11.9-3.1,11.9-3.1C527.8,191.3,529.3,191.6,527.3,189.9z"/>
		<path class="st9" d="M527.2,211.4c0,0-2.3-0.2-2.7-2.3c-0.4-2-1.8-2.7-1.8-2.7s5.5-0.2,6.2,1.9
			C529.5,210.5,528.7,211.9,527.2,211.4z"/>
		<path class="st6" d="M459.3,200.2c0.4-1.5,1.7-2.4,2.9-2.1c1.3,0.3,2,1.8,1.6,3.3s-1.7,2.4-2.9,2.1
			C459.7,203.1,458.9,201.6,459.3,200.2z"/>
		
			<linearGradient id="SVGID_1_" gradientUnits="userSpaceOnUse" x1="460.867" y1="269.0545" x2="462.923" y2="269.0545" gradientTransform="matrix(1 0 0 1 0 -68)">
			<stop  offset="1.281415e-03" style="stop-color:#00C3CD"/>
			<stop  offset="0.9988" style="stop-color:#2DDFC6"/>
		</linearGradient>
		<path class="st10" d="M461.7,201.6c0.1-0.3,0.4-0.5,0.6-0.4s0.4,0.2,0.4,0.5c0.1-0.1,0.1-0.2,0.1-0.3c0.2-0.6-0.2-1.1-0.7-1.3
			s-1.1,0.2-1.3,0.7c-0.2,0.6,0.2,1.1,0.7,1.3c0.1,0,0.2,0,0.3,0C461.8,202,461.7,201.8,461.7,201.6z"/>
		<path class="st6" d="M464.6,202.2c0.4-1.5,1.6-2.4,2.8-2.1c1.2,0.3,1.9,1.8,1.5,3.3s-1.6,2.4-2.8,2.1
			C465,205.1,464.3,203.6,464.6,202.2z"/>
		
			<linearGradient id="SVGID_2_" gradientUnits="userSpaceOnUse" x1="465.2661" y1="271.0545" x2="467.3221" y2="271.0545" gradientTransform="matrix(1 0 0 1 0 -68)">
			<stop  offset="1.281415e-03" style="stop-color:#00C3CD"/>
			<stop  offset="0.9988" style="stop-color:#2DDFC6"/>
		</linearGradient>
		<path class="st11" d="M466.1,203.6c0.1-0.3,0.4-0.5,0.6-0.4s0.4,0.2,0.4,0.5c0.1-0.1,0.1-0.2,0.1-0.3c0.2-0.6-0.2-1.1-0.7-1.3
			s-1.1,0.2-1.3,0.7c-0.2,0.6,0.2,1.1,0.7,1.3c0.1,0,0.2,0,0.3,0C466.2,204,466.1,203.8,466.1,203.6z"/>
		<path class="st6" d="M459.7,227.6c0,0.5,0.1,0.8-0.2,0.9c-0.3,0-1.2-0.5-0.7-0.9S459.7,227.1,459.7,227.6z"/>
		<path class="st6" d="M462.8,225.9c-0.4,0.2-0.7,0.6-0.8,0.3c-0.2-0.2-0.2-1.2,0.4-1.1C463,225.3,463.2,225.6,462.8,225.9z"/>
		<path class="st6" d="M461.8,230.3c0.5,0.3,0.9,0.5,0.8,0.7c-0.1,0.3-1.1,0.7-1.3,0C461.1,230.4,461.4,230,461.8,230.3z"/>
		<path class="st6" d="M491.7,191.5c-0.1,0.4-0.1,0.7-0.4,0.6c-0.3-0.1-1-0.6-0.5-0.9C491.4,191,491.8,191.1,491.7,191.5z"/>
		<path class="st6" d="M494.7,188.5c-0.5-0.1-1-0.1-0.9-0.4c0.1-0.3,0.7-1,1.1-0.6C495.2,188.1,495.1,188.6,494.7,188.5z"/>
		<path class="st6" d="M496.9,190.3c-0.4-0.1-0.6,0-0.6-0.3s0.5-1.1,0.8-0.6C497.4,190,497.3,190.3,496.9,190.3z"/>
		<path class="st6" d="M516.5,236.3c0-0.2-0.1-0.3,0.1-0.4c0.2,0,0.9,0,0.5,0.3C516.9,236.4,516.5,236.5,516.5,236.3z"/>
		<path class="st6" d="M516.1,238c0-0.2,0-0.3,0.2-0.3c0.2,0.1,0.8,0.4,0.5,0.5C516.3,238.2,516,238.1,516.1,238z"/>
		<path class="st6" d="M513.8,238c0.3,0,0.5-0.1,0.5,0.2c0,0.2-0.3,0.8-0.5,0.6C513.5,238.3,513.5,238,513.8,238z"/>
		<path class="st6" d="M520.5,226c0.2-0.2,0.4-0.4,0.5-0.3c0.2,0.2,0.4,0.8,0,0.7C520.5,226.5,520.3,226.2,520.5,226z"/>
		<path class="st6" d="M522.3,224.2c0-0.2,0-0.3,0.2-0.3s0.8,0.3,0.5,0.4C522.6,224.3,522.2,224.3,522.3,224.2z"/>
		<path class="st6" d="M520.8,223c-0.2-0.2-0.4-0.4-0.2-0.5s0.8-0.4,0.7,0.1C521.3,223,521,223.1,520.8,223z"/>
	</g>
</g>
</svg>
