<svg id="Calque_1" data-name="Calque 1" xmlns="http://www.w3.org/2000/svg" viewBox="0 0 358.15 112.33">
  <defs>
    <style>
      .cls-1, .cls-11, .cls-14, .cls-5 {
        isolation: isolate;
      }

      .cls-2 {
        fill: #fff;
      }

      .cls-3 {
        opacity: 0.2;
      }

      .cls-4, .cls-5 {
        opacity: 0.1;
      }

      .cls-6 {
        fill: #fd8f07;
      }

      .cls-7 {
        fill: #fed370;
      }

      .cls-8 {
        fill: #dd1f00;
      }

      .cls-9 {
        fill: #fef5e3;
      }

      .cls-10 {
        fill: #e3fcfc;
      }

      .cls-11 {
        opacity: 0.07;
      }

      .cls-12 {
        fill: #eac7d9;
      }

      .cls-13 {
        fill: #123b49;
      }

      .cls-14 {
        opacity: 0.08;
      }
    </style>
  </defs>
  <title>Plan de travail 1</title>
  <g id="Groupe_297" data-name="Groupe 297">
    <g id="Destination_Emotions." data-name="Destination Emotions." class="cls-1">
      <g class="cls-1">
        <path class="cls-2" d="M13.92,51.5H0v-39H14q8.52,0,13.89,5.23T33.22,32q0,9-5.39,14.25T13.92,51.5Zm-6.33-7h6.05a11.58,11.58,0,0,0,8.41-3.19q3.3-3.19,3.3-9.24t-3.3-9.27a11.5,11.5,0,0,0-8.36-3.22H7.59Z"/>
        <path class="cls-2" d="M57.58,41.93l6.11,1.82a11.66,11.66,0,0,1-4.32,6.16,12.94,12.94,0,0,1-8,2.42,13.72,13.72,0,0,1-9.9-3.94q-4.06-3.93-4.07-10.53a14,14,0,0,1,4-10.26,12.73,12.73,0,0,1,9.35-4q6.27,0,9.82,3.74t3.54,10.28c0,.29,0,.62,0,1s0,.66,0,.88l-.06.38H44.6a6,6,0,0,0,2.09,4.4,6.85,6.85,0,0,0,4.73,1.76Q56.1,46.05,57.58,41.93Zm-12.81-7h12.1a5.66,5.66,0,0,0-1.62-3.8,6,6,0,0,0-4.43-1.54,5.81,5.81,0,0,0-4.29,1.66A5.49,5.49,0,0,0,44.77,34.89Z"/>
        <path class="cls-2" d="M67.54,44l6.27-1.37a4.2,4.2,0,0,0,1.4,2.94,5,5,0,0,0,3.55,1.18A4.07,4.07,0,0,0,81.4,46,2.42,2.42,0,0,0,82.33,44q0-2-2.91-2.64l-3.58-.83a10.26,10.26,0,0,1-5.69-3,7.46,7.46,0,0,1-1.9-5.11,8.12,8.12,0,0,1,2.89-6.27,10.47,10.47,0,0,1,7.23-2.58,13.53,13.53,0,0,1,4.84.79,8.4,8.4,0,0,1,3.25,2A10.22,10.22,0,0,1,88.22,29,8.46,8.46,0,0,1,89,31.42L82.88,32.8a4.47,4.47,0,0,0-1.29-2.53,4.23,4.23,0,0,0-3.16-1.1,4,4,0,0,0-2.45.77,2.32,2.32,0,0,0-1,1.93c0,1.31.83,2.12,2.48,2.42l3.85.82a11.14,11.14,0,0,1,6,3,7.49,7.49,0,0,1,2.06,5.29,8.41,8.41,0,0,1-2.75,6.26c-1.84,1.77-4.42,2.65-7.76,2.65a14.33,14.33,0,0,1-5.11-.86,8.84,8.84,0,0,1-3.49-2.2,10.66,10.66,0,0,1-1.87-2.69A8.62,8.62,0,0,1,67.54,44Z"/>
        <path class="cls-2" d="M104.22,16.36v8.08h5.45v6.49h-5.45V42.26a3.21,3.21,0,0,0,.77,2.42,3.47,3.47,0,0,0,2.42.71,8.66,8.66,0,0,0,2.26-.22v6a10.76,10.76,0,0,1-4.13.66,8.67,8.67,0,0,1-6.27-2.22A8.13,8.13,0,0,1,97,43.53V30.93H92.07V24.44h1.37a4,4,0,0,0,3.11-1.18,4.44,4.44,0,0,0,1.07-3.11V16.36Z"/>
        <path class="cls-2" d="M115,15.58a4.43,4.43,0,0,1,1.32-3.21,4.48,4.48,0,0,1,6.38,0A4.4,4.4,0,0,1,124,15.58a4.29,4.29,0,0,1-1.32,3.14,4.51,4.51,0,0,1-6.38,0A4.29,4.29,0,0,1,115,15.58Zm8.2,35.92h-7.32V24.44h7.32Z"/>
        <path class="cls-2" d="M138.32,35.93V51.5H131V24.44h7.09v3.35a7.56,7.56,0,0,1,3.3-3,10.15,10.15,0,0,1,4.51-1.05q4.78,0,7.29,3a11.66,11.66,0,0,1,2.5,7.73v17h-7.31V35.71a5.87,5.87,0,0,0-1.24-3.9,5.29,5.29,0,0,0-7.45.11A5.9,5.9,0,0,0,138.32,35.93Z"/>
        <path class="cls-2" d="M161.48,44.13a7.2,7.2,0,0,1,2.25-5.55,10.76,10.76,0,0,1,5.83-2.65l6.66-1c1.35-.19,2-.83,2-1.93a3.14,3.14,0,0,0-1.18-2.53,6.09,6.09,0,0,0-7,.27,4.74,4.74,0,0,0-1.51,3.14L162,32.53a9.51,9.51,0,0,1,3.46-6.22,11.91,11.91,0,0,1,8.14-2.69q6.06,0,8.91,2.88a10.06,10.06,0,0,1,2.86,7.4V47.21a25,25,0,0,0,.33,4.29H179a15.57,15.57,0,0,1-.27-3.25c-1.73,2.68-4.38,4-8,4A9.4,9.4,0,0,1,164,49.85,7.6,7.6,0,0,1,161.48,44.13Zm10.83,2.7a6.29,6.29,0,0,0,4.27-1.46q1.66-1.45,1.67-4.82V39.34l-6.1.94q-3.36.49-3.36,3.41a3,3,0,0,0,.94,2.23A3.56,3.56,0,0,0,172.31,46.83Z"/>
        <path class="cls-2" d="M201.63,16.36v8.08h5.44v6.49h-5.44V42.26a3.17,3.17,0,0,0,.77,2.42,3.45,3.45,0,0,0,2.42.71,8.53,8.53,0,0,0,2.25-.22v6a10.7,10.7,0,0,1-4.12.66,8.67,8.67,0,0,1-6.27-2.22,8.13,8.13,0,0,1-2.31-6.13V30.93h-4.9V24.44h1.38A4,4,0,0,0,194,23.26,4.48,4.48,0,0,0,195,20.15V16.36Z"/>
        <path class="cls-2" d="M212.41,15.58a4.43,4.43,0,0,1,1.32-3.21A4.29,4.29,0,0,1,216.92,11a4.36,4.36,0,0,1,3.19,1.32,4.4,4.4,0,0,1,1.32,3.24,4.29,4.29,0,0,1-1.32,3.14,4.51,4.51,0,0,1-6.38,0A4.29,4.29,0,0,1,212.41,15.58ZM220.6,51.5h-7.31V24.44h7.31Z"/>
        <path class="cls-2" d="M230.42,27.68a14.71,14.71,0,0,1,20.29,0,14,14,0,0,1,4,10.29,14,14,0,0,1-4,10.28,14.65,14.65,0,0,1-20.29,0,14,14,0,0,1-4-10.28A14,14,0,0,1,230.42,27.68Zm5.28,16a6.82,6.82,0,0,0,9.73,0,7.69,7.69,0,0,0,2-5.66,7.73,7.73,0,0,0-2-5.67,6.84,6.84,0,0,0-9.73,0,7.73,7.73,0,0,0-2,5.67A7.69,7.69,0,0,0,235.7,43.63Z"/>
        <path class="cls-2" d="M267.85,35.93V51.5h-7.32V24.44h7.1v3.35a7.56,7.56,0,0,1,3.3-3,10.12,10.12,0,0,1,4.51-1.05c3.19,0,5.61,1,7.28,3a11.66,11.66,0,0,1,2.51,7.73v17h-7.32V35.71a5.87,5.87,0,0,0-1.24-3.9,5.29,5.29,0,0,0-7.45.11A5.9,5.9,0,0,0,267.85,35.93Z"/>
      </g>
      <g class="cls-1">
        <path class="cls-2" d="M131.86,111.5H107.44v-39h24.42v7.16H115v8.91h15.23v6.76H115v9h16.83Z"/>
        <path class="cls-2" d="M145.88,111.5h-7.31V84.44h7v3.3a7.29,7.29,0,0,1,3.3-3,10.52,10.52,0,0,1,4.62-1.1q5.9,0,8,4.51a9.58,9.58,0,0,1,8.58-4.51,10,10,0,0,1,7,2.58c1.89,1.73,2.83,4.29,2.83,7.71V111.5h-7.09V95.44a5.59,5.59,0,0,0-1.18-3.71,4.44,4.44,0,0,0-3.61-1.4,4.63,4.63,0,0,0-3.63,1.54A5.5,5.5,0,0,0,163,95.66V111.5h-7.26V95.44a5.5,5.5,0,0,0-1.21-3.71,4.46,4.46,0,0,0-3.58-1.4,4.71,4.71,0,0,0-3.68,1.51,5.45,5.45,0,0,0-1.38,3.82Z"/>
        <path class="cls-2" d="M189.3,87.68a14.72,14.72,0,0,1,20.3,0,15.11,15.11,0,0,1,0,20.57,14.67,14.67,0,0,1-20.3,0,15.11,15.11,0,0,1,0-20.57Zm5.28,15.95a6.83,6.83,0,0,0,9.74,0,9,9,0,0,0,0-11.33,6.86,6.86,0,0,0-9.74,0,9,9,0,0,0,0,11.33Z"/>
        <path class="cls-2" d="M228.33,76.36v8.08h5.44v6.49h-5.44v11.33a3.17,3.17,0,0,0,.77,2.42,3.45,3.45,0,0,0,2.42.71,8.53,8.53,0,0,0,2.25-.22v6a10.7,10.7,0,0,1-4.12.66,8.67,8.67,0,0,1-6.27-2.22,8.13,8.13,0,0,1-2.31-6.13V90.93h-4.9V84.44h1.38a4,4,0,0,0,3.1-1.18,4.44,4.44,0,0,0,1.08-3.11V76.36Z"/>
        <path class="cls-2" d="M239.11,75.58a4.43,4.43,0,0,1,1.32-3.21A4.29,4.29,0,0,1,243.62,71a4.36,4.36,0,0,1,3.19,1.32,4.4,4.4,0,0,1,1.32,3.24,4.29,4.29,0,0,1-1.32,3.14,4.51,4.51,0,0,1-6.38,0A4.29,4.29,0,0,1,239.11,75.58Zm8.19,35.92H240V84.44h7.31Z"/>
        <path class="cls-2" d="M257.12,87.68a14.71,14.71,0,0,1,20.29,0,15.08,15.08,0,0,1,0,20.57,14.65,14.65,0,0,1-20.29,0,15.11,15.11,0,0,1,0-20.57Zm5.28,15.95a6.82,6.82,0,0,0,9.73,0,9,9,0,0,0,0-11.33,6.84,6.84,0,0,0-9.73,0,9,9,0,0,0,0,11.33Z"/>
        <path class="cls-2" d="M294.54,95.93V111.5h-7.31V84.44h7.09v3.35a7.56,7.56,0,0,1,3.3-3,10.18,10.18,0,0,1,4.51-1q4.78,0,7.29,3a11.66,11.66,0,0,1,2.5,7.73v17h-7.31V95.71a5.87,5.87,0,0,0-1.24-3.9,5.29,5.29,0,0,0-7.45.11A5.9,5.9,0,0,0,294.54,95.93Z"/>
        <path class="cls-2" d="M317,104l6.27-1.37a4.2,4.2,0,0,0,1.4,2.94,5.06,5.06,0,0,0,3.55,1.18,4.05,4.05,0,0,0,2.64-.76,2.42,2.42,0,0,0,.93-1.93q0-2-2.91-2.64l-3.57-.83a10.26,10.26,0,0,1-5.7-3,7.46,7.46,0,0,1-1.9-5.11,8.12,8.12,0,0,1,2.89-6.27,10.47,10.47,0,0,1,7.23-2.58,13.53,13.53,0,0,1,4.84.79,8.4,8.4,0,0,1,3.25,2,10,10,0,0,1,1.76,2.5,8.46,8.46,0,0,1,.77,2.47l-6.1,1.38a4.55,4.55,0,0,0-1.3-2.53,4.23,4.23,0,0,0-3.16-1.1,4,4,0,0,0-2.45.77,2.32,2.32,0,0,0-1,1.93c0,1.31.83,2.12,2.48,2.42l3.85.82a11.14,11.14,0,0,1,6,3,7.49,7.49,0,0,1,2.06,5.29,8.41,8.41,0,0,1-2.75,6.26q-2.74,2.66-7.76,2.65a14.33,14.33,0,0,1-5.11-.86,8.92,8.92,0,0,1-3.49-2.2,10.66,10.66,0,0,1-1.87-2.69A8.91,8.91,0,0,1,317,104Z"/>
        <path class="cls-2" d="M345.81,110.43a5,5,0,0,1,0-7.1,4.85,4.85,0,0,1,3.52-1.45,4.91,4.91,0,0,1,3.57,1.45,5,5,0,0,1,0,7.1,4.91,4.91,0,0,1-3.57,1.45A4.85,4.85,0,0,1,345.81,110.43Z"/>
      </g>
    </g>
    <g id="LogoSynergBASELINEFichier_1" data-name="LogoSynergBASELINEFichier 1">
      <g>
        <g id="Groupe_291" data-name="Groupe 291" class="cls-3">
          <path id="Tracé_5356" data-name="Tracé 5356" d="M266,45.39c1.67.23,5.15.46,7.64-1.14a4.48,4.48,0,0,0,1.44-6.18,2.11,2.11,0,0,0-.21-.31,4.41,4.41,0,0,0-6.14-.83c-2.52,1.89-3.32,5.56-3.57,7.32A1,1,0,0,0,266,45.39Z"/>
          <path id="Tracé_5357" data-name="Tracé 5357" d="M277.7,45.88l-9.8-13a2,2,0,0,1,.39-2.75l3.78-2.84,12.15,16.15-3.78,2.84A2,2,0,0,1,277.7,45.88Z"/>
          <g id="Groupe_290" data-name="Groupe 290" class="cls-4">
            <rect id="Rectangle_237" data-name="Rectangle 237" x="274.15" y="38.84" width="6.69" height="2.44" transform="translate(31.7 174.94) rotate(-36.97)"/>
            <rect id="Rectangle_238" data-name="Rectangle 238" x="270.1" y="33.46" width="6.69" height="2.44" transform="translate(34.12 171.42) rotate(-36.97)"/>
          </g>
          <path id="Tracé_5358" data-name="Tracé 5358" d="M281,15.22l-4.07-1.73a15.77,15.77,0,0,0-19.65,6.28h0a1.85,1.85,0,0,0,.61,2.54,1.88,1.88,0,0,0,1.68.12h0a11.11,11.11,0,0,1,12.83,3h0Z"/>
          <path id="Tracé_5359" data-name="Tracé 5359" d="M298.27,38.23l.54,4.39a15.78,15.78,0,0,1-11.48,17.15h0a1.84,1.84,0,0,1-1.91-3h0a11.15,11.15,0,0,0,.65-13.15h0Z"/>
          <path id="Tracé_5360" data-name="Tracé 5360" class="cls-5" d="M298.82,42.62l-.55-4.39-12.2,5.44h0a11.22,11.22,0,0,1,1.8,5.06,6.13,6.13,0,0,0,1.69-.4A78.8,78.8,0,0,0,298.92,44C298.91,43.51,298.87,43.07,298.82,42.62Z"/>
          <path id="Tracé_5361" data-name="Tracé 5361" class="cls-5" d="M276.88,13.48c-.41-.17-.83-.33-1.26-.47a78.71,78.71,0,0,0-6.79,7.8,6,6,0,0,0-.85,1.5,11.16,11.16,0,0,1,4.37,3.12h0l8.59-10.23Z"/>
          <path id="Tracé_5362" data-name="Tracé 5362" d="M288.36,45.3c24.8-9.73,33.45-26.65,34.47-40.44a3.82,3.82,0,0,0-3-4c-13.52-2.84-32.19.79-48.39,22a3,3,0,0,0,0,3.61l13.49,17.92A3,3,0,0,0,288.36,45.3Z"/>
          <path id="Tracé_5363" data-name="Tracé 5363" d="M309.32,11.88a42.39,42.39,0,0,0,8.8,9.09,40.59,40.59,0,0,0,4.72-16.13,3.82,3.82,0,0,0-3-4A40.64,40.64,0,0,0,303,.93,42,42,0,0,0,309.32,11.88Z"/>
          <circle id="Ellipse_1553" data-name="Ellipse 1553" cx="298.89" cy="19.74" r="7.19"/>
          <path id="Tracé_5364" data-name="Tracé 5364" d="M291.59,25.24a9.14,9.14,0,1,1,12.8,1.8h0A9.14,9.14,0,0,1,291.59,25.24Zm11.49-8.65a5.24,5.24,0,1,0-1,7.33,5.24,5.24,0,0,0,1-7.33Z"/>
          <ellipse id="Ellipse_1554" data-name="Ellipse 1554" cx="278.91" cy="23.32" rx="2.69" ry="3.38" transform="matrix(0.8, -0.6, 0.6, 0.8, 42.05, 172.42)"/>
          <ellipse id="Ellipse_1555" data-name="Ellipse 1555" cx="289.93" cy="37.96" rx="2.69" ry="3.38" transform="matrix(0.8, -0.6, 0.6, 0.8, 35.46, 181.99)"/>
          <path id="Tracé_5365" data-name="Tracé 5365" d="M281.26,24a1.23,1.23,0,0,1,.24-1.72l1-.72a1.23,1.23,0,0,1,1.47,2l-.95.71a1.22,1.22,0,0,1-1.72-.22Z"/>
          <path id="Tracé_5366" data-name="Tracé 5366" d="M289.91,35.5a1.23,1.23,0,0,1,.24-1.72l1-.72a1.23,1.23,0,0,1,1.65,1.82.83.83,0,0,1-.18.13l-.95.72A1.23,1.23,0,0,1,289.91,35.5Z"/>
          <path id="Tracé_5367" data-name="Tracé 5367" d="M284.85,30.3a3.7,3.7,0,0,1-.66-3,1.23,1.23,0,1,1,2.44.25,2.38,2.38,0,0,1-.05.26,1.28,1.28,0,0,0,1,1.53l.18,0A1.22,1.22,0,0,1,289,30.53a1.23,1.23,0,0,1-1.18,1.27,1.1,1.1,0,0,1-.26,0A3.71,3.71,0,0,1,284.85,30.3Z"/>
          <circle id="Ellipse_1556" data-name="Ellipse 1556" cx="311.81" cy="10.02" r="1.21"/>
          <circle id="Ellipse_1557" data-name="Ellipse 1557" cx="308.07" cy="4.22" r="1.21"/>
          <circle id="Ellipse_1558" data-name="Ellipse 1558" cx="316.34" cy="15.21" r="1.21"/>
          <path id="Tracé_5368" data-name="Tracé 5368" class="cls-5" d="M268.29,30.13a2,2,0,0,0-.39,2.74l2.62,3.48a5.29,5.29,0,0,1,.77-3.38,1.16,1.16,0,0,1,1.61-.31,1.11,1.11,0,0,1,.27.26l9.05,12,2-1.51L272.08,27.28Z"/>
          <path id="Tracé_5369" data-name="Tracé 5369" class="cls-5" d="M318.74.64C305.3-1.78,287.2,2.19,271.42,22.8a3,3,0,0,0,0,3.61l5,6.64C276.41,15.77,304,2.81,318.74.64Z"/>
        </g>
        <path id="Tracé_5370" data-name="Tracé 5370" class="cls-2" d="M265.22,46.46s-24.1,19.89-58.06,14.36-3.68-17.06-3.68-17.06-27.82,10.53-5.1,17.46c-.23-.1,31.22,13.33,69.51-11.3C269.08,47.4,265.22,46.46,265.22,46.46Z"/>
        <path id="Tracé_5371" data-name="Tracé 5371" class="cls-6" d="M263.35,51.34c3.44.48,10.59.95,15.73-2.35a9.24,9.24,0,0,0,3-12.73c-.14-.22-.28-.43-.44-.64a9.09,9.09,0,0,0-12.67-1.72c-5.17,3.9-6.84,11.46-7.35,15.08a2.08,2.08,0,0,0,1.76,2.36Z"/>
        <path id="Tracé_5372" data-name="Tracé 5372" class="cls-7" d="M269.21,46c1.66.25,5.14.46,7.64-1.14a4.49,4.49,0,0,0,1.44-6.18l-.21-.31a4.43,4.43,0,0,0-6.17-.83c-2.51,1.89-3.32,5.56-3.57,7.32A1,1,0,0,0,269.2,46Z"/>
        <path id="Tracé_5373" data-name="Tracé 5373" class="cls-8" d="M280.9,46.47l-9.79-13a2,2,0,0,1,.39-2.75l3.78-2.84L287.43,44l-3.79,2.86A2,2,0,0,1,280.9,46.47Z"/>
        <g id="Groupe_292" data-name="Groupe 292" class="cls-4">
          <rect id="Rectangle_239" data-name="Rectangle 239" x="277.36" y="39.43" width="6.69" height="2.44" transform="translate(31.99 176.99) rotate(-36.97)"/>
          <rect id="Rectangle_240" data-name="Rectangle 240" x="273.31" y="34.05" width="6.69" height="2.44" transform="translate(34.41 173.47) rotate(-36.97)"/>
        </g>
        <circle id="Ellipse_1559" data-name="Ellipse 1559" class="cls-6" cx="271.1" cy="57.93" r="2.83"/>
        <circle id="Ellipse_1560" data-name="Ellipse 1560" class="cls-6" cx="254.87" cy="43.52" r="2.68"/>
        <path id="Tracé_5374" data-name="Tracé 5374" class="cls-8" d="M284.15,15.8l-4.06-1.73a15.79,15.79,0,0,0-19.66,6.29h0a1.84,1.84,0,0,0,.62,2.53,1.8,1.8,0,0,0,1.67.12h0a11.16,11.16,0,0,1,12.84,3h0Z"/>
        <path id="Tracé_5375" data-name="Tracé 5375" class="cls-8" d="M301.48,38.82,302,43.2a15.78,15.78,0,0,1-11.48,17.17h0a1.84,1.84,0,0,1-1.91-2.95h0a11.13,11.13,0,0,0,.64-13.17h0Z"/>
        <path id="Tracé_5376" data-name="Tracé 5376" class="cls-5" d="M302,43.2l-.54-4.38-12.21,5.43h0a11,11,0,0,1,1.79,5.07,6.13,6.13,0,0,0,1.69-.4,78.21,78.21,0,0,0,9.37-4.37A12.26,12.26,0,0,0,302,43.2Z"/>
        <path id="Tracé_5377" data-name="Tracé 5377" class="cls-5" d="M280.09,14.07c-.42-.18-.84-.33-1.26-.47A79.74,79.74,0,0,0,272,21.39a5.81,5.81,0,0,0-.85,1.52A11.16,11.16,0,0,1,275.56,26h0l8.59-10.23Z"/>
        <path id="Tracé_5378" data-name="Tracé 5378" class="cls-9" d="M291.57,45.88C316.37,36.16,325,19.23,326,5.44a3.83,3.83,0,0,0-3-4c-13.54-2.84-32.19.79-48.4,21.94a3,3,0,0,0,0,3.6L288.1,44.91A3,3,0,0,0,291.57,45.88Z"/>
        <path id="Tracé_5379" data-name="Tracé 5379" class="cls-8" d="M312.53,12.47a42.62,42.62,0,0,0,8.8,9.09,40.59,40.59,0,0,0,4.72-16.13,3.79,3.79,0,0,0-3-4,40.47,40.47,0,0,0-16.8.07A42,42,0,0,0,312.53,12.47Z"/>
        <circle id="Ellipse_1561" data-name="Ellipse 1561" class="cls-10" cx="302.1" cy="20.32" r="6.35"/>
        <path id="Tracé_5380" data-name="Tracé 5380" class="cls-11" d="M307.45,16l-10.8,8.73s6.29,5.47,10.29.91S307.45,16,307.45,16Z"/>
        <path id="Tracé_5381" data-name="Tracé 5381" class="cls-8" d="M295.61,25.13A8.1,8.1,0,1,1,307,26.73a8.09,8.09,0,0,1-11.36-1.6Zm11.4-8.5a6.14,6.14,0,1,0-1.22,8.6h0A6.13,6.13,0,0,0,307,16.63Z"/>
        <ellipse id="Ellipse_1562" data-name="Ellipse 1562" class="cls-12" cx="282.11" cy="23.91" rx="2.69" ry="3.38" transform="matrix(0.8, -0.6, 0.6, 0.8, 42.34, 174.47)"/>
        <ellipse id="Ellipse_1563" data-name="Ellipse 1563" class="cls-12" cx="293.13" cy="38.55" rx="2.69" ry="3.38" transform="matrix(0.8, -0.6, 0.6, 0.8, 35.75, 184.04)"/>
        <path id="Tracé_5382" data-name="Tracé 5382" class="cls-13" d="M284.46,24.6a1.24,1.24,0,0,1,.25-1.72l1-.72a1.23,1.23,0,0,1,1.53,1.92l-.06,0-.95.72a1.23,1.23,0,0,1-1.72-.24Z"/>
        <path id="Tracé_5383" data-name="Tracé 5383" class="cls-13" d="M293.12,36.09a1.23,1.23,0,0,1,.24-1.72l1-.72A1.22,1.22,0,0,1,296,35.46a.79.79,0,0,1-.18.14l-1,.72a1.23,1.23,0,0,1-1.72-.23Z"/>
        <path id="Tracé_5384" data-name="Tracé 5384" class="cls-13" d="M288.06,30.9a3.7,3.7,0,0,1-.67-3,1.23,1.23,0,1,1,2.44.25,1.19,1.19,0,0,1-.05.26,1.29,1.29,0,0,0,1,1.53l.17,0a1.22,1.22,0,0,1-.17,2.43A3.69,3.69,0,0,1,288.06,30.9Z"/>
        <circle id="Ellipse_1564" data-name="Ellipse 1564" class="cls-9" cx="315.02" cy="10.61" r="1.21"/>
        <circle id="Ellipse_1565" data-name="Ellipse 1565" class="cls-9" cx="311.28" cy="4.81" r="1.21"/>
        <circle id="Ellipse_1566" data-name="Ellipse 1566" class="cls-9" cx="319.55" cy="15.8" r="1.21"/>
        <path id="Tracé_5385" data-name="Tracé 5385" class="cls-5" d="M271.5,30.72a2,2,0,0,0-.39,2.75L273.73,37a5.17,5.17,0,0,1,.77-3.38,1.16,1.16,0,0,1,1.88,0l9,12,2-1.51L275.27,27.87Z"/>
        <path id="Tracé_5386" data-name="Tracé 5386" class="cls-14" d="M321.94,1.22C308.51-1.2,290.4,2.77,274.62,23.38a3,3,0,0,0,0,3.6l5,6.64C279.62,16.36,307.25,3.4,321.94,1.22Z"/>
      </g>
    </g>
  </g>
</svg>
