<svg xmlns="http://www.w3.org/2000/svg" viewBox="0 0 1000 1000">
  <defs>
    <style>
      .cls-1 {
        fill: #fd8f07;
      }

      .cls-2 {
        fill: #9bf2e5;
      }

      .cls-3 {
        fill: #2de0c7;
      }

      .cls-4 {
        fill: #00c2cc;
      }

      .cls-5 {
        fill: #2eccb2;
      }

      .cls-6 {
        fill: #00b2b2;
      }

      .cls-7 {
        fill: #fef5e3;
      }

      .cls-8 {
        fill: #ffe5c0;
      }

      .cls-9 {
        opacity: 0.2;
      }

      .cls-10, .cls-11 {
        opacity: 0.1;
      }

      .cls-11, .cls-19 {
        isolation: isolate;
      }

      .cls-12 {
        fill: #fff;
      }

      .cls-13 {
        fill: #fed370;
      }

      .cls-14 {
        fill: #dd1f00;
      }

      .cls-15 {
        fill: #e3fcfc;
      }

      .cls-16 {
        opacity: 0.07;
      }

      .cls-17 {
        fill: #eac7d9;
      }

      .cls-18 {
        fill: #123b49;
      }

      .cls-19 {
        opacity: 0.08;
      }
    </style>
  </defs>
  <title>logo</title>
  <g id="Calque_2" data-name="Calque 2">
    <g>
      <path class="cls-1" d="M83.23,387.72a11.41,11.41,0,0,1,14.31,7.36l0,.16a11.41,11.41,0,0,1-7.34,14.37h0a11.4,11.4,0,0,1-14.31-7.36l0-.16a11.4,11.4,0,0,1,7.34-14.36Z"/>
      <path class="cls-2" d="M142.79,416.4a368.29,368.29,0,0,1,3.76-41A365.1,365.1,0,0,1,520.68,64.66,366.14,366.14,0,0,1,607,78.11q16.15,4.58,31.68,10.53a363.38,363.38,0,0,1,88.15,48.88,372.93,372.93,0,0,1,32.06,27.13,366.22,366.22,0,0,1,68.83,89.25q8.38,15.15,15.27,31.17a363.38,363.38,0,0,1,29.46,157.48c-.27,7.69-.79,15.33-1.53,22.87C852.24,655.81,688.3,801.24,494.53,794.29a365.46,365.46,0,0,1-323.41-223v0A360.59,360.59,0,0,1,153,516.51,364.61,364.61,0,0,1,142.79,416.4Z"/>
      <path class="cls-3" d="M142.79,416.4a368.29,368.29,0,0,1,3.76-41,362.06,362.06,0,0,1,24.92-88.58C228.86,151.66,365.16,59.09,520.68,64.66q15.06.54,29.79,2.28c-143,6.38-265.74,95.55-319.43,222a362.46,362.46,0,0,0-24.92,88.59,370.47,370.47,0,0,0-3.76,41,363.76,363.76,0,0,0,28.33,154.82v0a365.54,365.54,0,0,0,293.7,220.77q-14.81.66-29.87.14a365.51,365.51,0,0,1-323.4-223v0A359.24,359.24,0,0,1,153,516.5,364.5,364.5,0,0,1,142.79,416.4Z"/>
      <path class="cls-3" d="M142.79,416.4a368.29,368.29,0,0,1,3.76-41,362.06,362.06,0,0,1,24.92-88.58c22.05-13.19,47.88-25.28,78.17-35.43,38.36-12.87,83.82-22.64,137.71-27.53C579.12,206.4,666.08,188,726.81,137.53A366.74,366.74,0,0,1,827.69,253.89c-62.52,67.77-145.12,88.86-362.9,108.7-130.27,11.87-211.33,52.11-261.68,96.05A267.5,267.5,0,0,0,153,516.5,364.5,364.5,0,0,1,142.79,416.4Z"/>
      <path class="cls-4" d="M142.79,416.4a368.29,368.29,0,0,1,3.76-41,362.06,362.06,0,0,1,24.92-88.58c22.05-13.19,47.88-25.28,78.17-35.43a361.84,361.84,0,0,0-43.52,126.15,370.47,370.47,0,0,0-3.76,41,366.08,366.08,0,0,0,.75,40.1A267.22,267.22,0,0,0,153,516.5,364.5,364.5,0,0,1,142.79,416.4Z"/>
      <path class="cls-3" d="M171.12,571.25v0a247.36,247.36,0,0,1,41-54.64c46.6-47.24,127-93.33,265.41-105.94C707.47,389.7,780,367.3,843,285.07a363.49,363.49,0,0,1,29.45,157.48q-.4,11.54-1.53,22.88C813,510.25,729.28,527.32,551.63,543.48c-145.26,13.23-226.62,63.31-272,112.95A247.29,247.29,0,0,0,253,691,366,366,0,0,1,171.12,571.25Z"/>
      <path class="cls-4" d="M171.12,571.25v0a247.36,247.36,0,0,1,41-54.64c.15.69.32,1.37.48,2a361.49,361.49,0,0,0,18.13,54.73v0a364.74,364.74,0,0,0,48.88,83A247.29,247.29,0,0,0,253,691,366,366,0,0,1,171.12,571.25Z"/>
      <path class="cls-5" d="M142.79,416.4a368.29,368.29,0,0,1,3.76-41c18.52-17.17,41.75-34,70.9-48.73,45.83-23.27,106.26-41.6,185.91-48.86,217.95-19.85,294.5-41,355.5-113.18A366.08,366.08,0,0,1,843,285.07C780,367.3,707.47,389.71,477.5,410.65c-138.41,12.61-218.81,58.69-265.41,105.94a246.8,246.8,0,0,0-41,54.66A363.59,363.59,0,0,1,142.79,416.4Z"/>
      <path class="cls-6" d="M142.79,416.4a368.29,368.29,0,0,1,3.76-41c18.52-17.17,41.75-34,70.9-48.73a362.09,362.09,0,0,0-11.33,50.87,370.47,370.47,0,0,0-3.76,41,364,364,0,0,0,9.73,98.05,246.8,246.8,0,0,0-41,54.66A363.59,363.59,0,0,1,142.79,416.4Z"/>
      <path class="cls-7" d="M257.06,164a363.08,363.08,0,0,1,34.8-29q13.42-1.74,27.22-3,24.21-2.22,45.95-4.43h.05C490.49,114.77,558.42,100.92,607,78.11q16.14,4.59,31.68,10.52a9.65,9.65,0,0,1-1.08.72c-64.7,37.21-158.83,52.14-309,66-2.41.23-4.85.46-7.3.67-20.71,1.9-40.87,4.58-59.94,8A11.72,11.72,0,0,1,257.06,164Z"/>
      <path class="cls-7" d="M396.93,672c-.93,25.78,38.34,48.12,87.71,49.88s90.12-17.7,91-43.48-38.34-48.11-87.7-49.88S397.85,646.16,396.93,672Z"/>
      <path class="cls-8" d="M396.93,672c.92-25.78,41.69-45.25,91.05-43.48,43.57,1.56,79.25,19.14,86.4,41-15.92-9.29-38.44-15.53-63.57-16.43-49.35-1.77-90.13,17.7-91.05,43.48a25.39,25.39,0,0,0,1.3,8.93C405.71,696.42,396.47,684.6,396.93,672Z"/>
      <g>
        <path class="cls-3" d="M940.79,436h.06a11.42,11.42,0,0,1,10.93,11.86l-.19,4.58a11.4,11.4,0,1,1-22.79-.93L929,447A11.41,11.41,0,0,1,940.79,436Z"/>
        <path class="cls-3" d="M942.61,389.42h.06a11.42,11.42,0,0,1,10.93,11.86l-.19,4.58a11.4,11.4,0,1,1-22.79-.93l.19-4.58A11.4,11.4,0,0,1,942.61,389.42Z"/>
        <path class="cls-3" d="M916,414h.06l4.57.18a11.4,11.4,0,0,1-.87,22.79h0l-4.58-.18A11.41,11.41,0,0,1,916,414Z"/>
        <path class="cls-3" d="M962.62,415.83h0l4.58.18a11.41,11.41,0,0,1-.87,22.8h-.06l-4.57-.18a11.4,11.4,0,0,1,.87-22.79Z"/>
        <path class="cls-3" d="M248.42,75.93h.05a11.41,11.41,0,0,1,10.94,11.86l-.19,4.58a11.4,11.4,0,0,1-11.8,10.93h-.06a11.4,11.4,0,0,1-10.93-11.86l.19-4.58A11.4,11.4,0,0,1,248.42,75.93Z"/>
        <path class="cls-3" d="M250.23,29.33h.06a11.41,11.41,0,0,1,10.93,11.86L261,45.77a11.39,11.39,0,0,1-11.8,10.93h0a11.4,11.4,0,0,1-10.94-11.86l.19-4.58A11.41,11.41,0,0,1,250.23,29.33Z"/>
        <path class="cls-3" d="M223.64,53.92h.06l4.58.19a11.4,11.4,0,0,1-.93,22.79l-4.57-.19a11.4,11.4,0,0,1,.86-22.79Z"/>
        <path class="cls-3" d="M270.24,55.74h.06l4.58.18a11.41,11.41,0,0,1-.87,22.8H274l-4.57-.18a11.4,11.4,0,0,1,.86-22.79Z"/>
      </g>
      <path class="cls-1" d="M88.69,346.1A11.4,11.4,0,0,1,103,353.51l.06.17a11.41,11.41,0,0,1-21.74,6.92l0-.17A11.41,11.41,0,0,1,88.69,346.1Z"/>
      <path class="cls-1" d="M785.32,721.29a11.41,11.41,0,0,1,11,11.76v.18a11.39,11.39,0,0,1-11.76,11h0a11.42,11.42,0,0,1-11-11.76v-.18a11.4,11.4,0,0,1,11.76-11Z"/>
      <path class="cls-8" d="M257.06,164a363.08,363.08,0,0,1,34.8-29q13.42-1.74,27.22-3,24.21-2.22,45.95-4.43a367.57,367.57,0,0,0-36.47,27.75c-2.41.23-4.85.46-7.3.67-20.71,1.9-40.87,4.58-59.94,8A11.72,11.72,0,0,1,257.06,164Z"/>
    </g>
    <g class="cls-9">
      <path d="M524.47,462.34c10.16,1.43,31.37,2.82,46.61-7,13.48-8.64,17.24-26.92,7.47-39.6A27,27,0,0,0,541,410.7c-15.32,11.54-20.26,33.94-21.79,44.64A6.17,6.17,0,0,0,524.47,462.34Z"/>
      <path d="M595.86,465.34,536.1,386a12,12,0,0,1,2.36-16.75l23.07-17.36,74.14,98.48L612.6,467.7A12,12,0,0,1,595.86,465.34Z"/>
      <g class="cls-10">
        <rect x="574.23" y="422.33" width="40.84" height="14.91" transform="translate(-138.92 444.06) rotate(-36.97)"/>
        <rect x="549.52" y="389.51" width="40.84" height="14.91" transform="translate(-124.14 422.6) rotate(-36.97)"/>
      </g>
      <g>
        <path d="M615.69,278.21l-24.8-10.57A96.32,96.32,0,0,0,470.94,306h0c-5.69,9.33,3.93,20.47,14,16.19h0a68,68,0,0,1,78.33,18.42h0Z"/>
        <path d="M721.42,418.65l3.3,26.76a96.31,96.31,0,0,1-70.05,104.65h0c-10.54,2.9-18.59-9.43-11.69-17.91h0a68,68,0,0,0,4-80.37h0Z"/>
      </g>
      <path class="cls-11" d="M724.72,445.41l-3.3-26.76-74.48,33.13h0a67.8,67.8,0,0,1,10.94,30.92,37.73,37.73,0,0,0,10.32-2.44,482.09,482.09,0,0,0,57.17-26.69C725.26,450.86,725.06,448.14,724.72,445.41Z"/>
      <path class="cls-11" d="M590.89,267.64c-2.53-1.08-5.09-2-7.66-2.88a480.48,480.48,0,0,0-41.46,47.56,37.53,37.53,0,0,0-5.2,9.23,68,68,0,0,1,26.69,19.07h0l52.43-62.41Z"/>
      <path d="M660.94,461.75C812.32,402.42,865.06,299.14,871.3,215a23.3,23.3,0,0,0-18.45-24.51c-82.59-17.28-196.42,4.84-295.3,133.9a18.2,18.2,0,0,0-.1,22l82.31,109.34A18.18,18.18,0,0,0,660.94,461.75Z"/>
      <path d="M788.85,257.87c14.94,19.86,31.33,39.08,53.68,55.39a247.6,247.6,0,0,0,28.78-98.39A23.19,23.19,0,0,0,853,190.53a247.41,247.41,0,0,0-102.51.44C760,217,773.9,238,788.85,257.87Z"/>
      <circle cx="725.2" cy="305.79" r="43.89"/>
      <path d="M680.61,339.36a55.81,55.81,0,1,1,78.15,11A55.88,55.88,0,0,1,680.61,339.36Zm70.12-52.79a32,32,0,1,0-6.31,44.75A32,32,0,0,0,750.73,286.57Z"/>
      <g>
        <ellipse cx="603.23" cy="327.62" rx="16.43" ry="20.63" transform="translate(-75.75 428.68) rotate(-36.97)"/>
        <ellipse cx="670.48" cy="416.96" rx="16.43" ry="20.63" transform="translate(-115.96 487.09) rotate(-36.97)"/>
      </g>
      <g>
        <path d="M617.6,331.86a7.45,7.45,0,0,1,1.47-10.44l5.82-4.38a7.46,7.46,0,0,1,9,11.91L628,333.33A7.45,7.45,0,0,1,617.6,331.86Z"/>
        <path d="M670.39,402a7.45,7.45,0,0,1,1.47-10.44l5.82-4.38a7.46,7.46,0,0,1,9,11.91l-5.82,4.38A7.45,7.45,0,0,1,670.39,402Z"/>
        <path d="M639.52,370.28a22.79,22.79,0,0,1-4.08-18.44A7.45,7.45,0,0,1,650,354.93a7.88,7.88,0,0,0,7.16,9.51,7.45,7.45,0,0,1-1.06,14.87A22.79,22.79,0,0,1,639.52,370.28Z"/>
      </g>
      <g>
        <circle cx="804.03" cy="246.44" r="7.4" transform="translate(-22.26 402.78) rotate(-27.75)"/>
        <circle cx="781.21" cy="211.13" r="7.4"/>
        <circle cx="831.66" cy="278.14" r="7.4" transform="translate(-0.06 556.11) rotate(-36.97)"/>
      </g>
      <path class="cls-11" d="M538.46,369.21A12,12,0,0,0,536.1,386l16,21.23c-.73-8.8,1.36-15.56,4.69-20.59a7,7,0,0,1,11.49-.31l55.15,73.27,12.25-9.23-74.14-98.48Z"/>
      <path class="cls-11" d="M846.31,189.23c-82-14.77-192.46,9.48-288.76,135.17a18.2,18.2,0,0,0-.1,22L588,387C588,281.58,756.65,202.48,846.31,189.23Z"/>
    </g>
    <path class="cls-12" d="M519.76,468.84S372.69,590.17,165.45,556.46s-22.54-104.11-22.54-104.11-169.69,64.3-31.07,106.52C110.49,558.29,302.36,640.26,536,490,543.3,474.6,519.76,468.84,519.76,468.84Z"/>
    <g>
      <path class="cls-1" d="M508.31,498.62c20.94,2.93,64.61,5.79,96-14.35,27.74-17.8,35.49-55.45,15.37-81.56a55.48,55.48,0,0,0-77.3-10.44c-31.57,23.77-41.75,69.89-44.88,91.93A12.72,12.72,0,0,0,508.31,498.62Z"/>
      <path class="cls-13" d="M544,465.92c10.16,1.43,31.36,2.82,46.61-7,13.47-8.64,17.24-26.92,7.46-39.6a27,27,0,0,0-37.53-5.07c-15.33,11.54-20.27,33.94-21.79,44.64A6.17,6.17,0,0,0,544,465.92Z"/>
      <path class="cls-14" d="M615.43,468.92l-59.76-79.38A12,12,0,0,1,558,372.79l23.07-17.36,74.14,98.49-23.07,17.36A12,12,0,0,1,615.43,468.92Z"/>
      <g class="cls-10">
        <rect x="593.79" y="425.91" width="40.84" height="14.91" transform="translate(-137.14 456.54) rotate(-36.97)"/>
        <rect x="569.08" y="393.09" width="40.84" height="14.91" transform="translate(-122.36 435.08) rotate(-36.97)"/>
      </g>
      <g>
        <circle class="cls-1" cx="555.59" cy="538.85" r="17.29"/>
        <circle class="cls-1" cx="456.58" cy="450.94" r="16.33"/>
      </g>
      <g>
        <path class="cls-14" d="M635.26,281.79l-24.8-10.57a96.31,96.31,0,0,0-120,38.37h0c-5.7,9.33,3.93,20.47,14,16.19h0a68,68,0,0,1,78.33,18.42h0Z"/>
        <path class="cls-14" d="M741,422.23l3.3,26.76a96.32,96.32,0,0,1-70.06,104.65h0c-10.53,2.9-18.58-9.43-11.69-17.91h0a68,68,0,0,0,4-80.37h0Z"/>
      </g>
      <path class="cls-11" d="M744.29,449,741,422.23,666.5,455.36h0a67.82,67.82,0,0,1,11,30.92,37.66,37.66,0,0,0,10.31-2.44,481.35,481.35,0,0,0,57.17-26.69Q744.78,453.09,744.29,449Z"/>
      <path class="cls-11" d="M610.46,271.22c-2.53-1.08-5.09-2-7.67-2.88a481.79,481.79,0,0,0-41.46,47.56,37.86,37.86,0,0,0-5.2,9.23,67.93,67.93,0,0,1,26.69,19.07h0l52.44-62.41Z"/>
      <path class="cls-7" d="M680.51,465.33C831.89,406,884.62,302.73,890.86,218.59a23.29,23.29,0,0,0-18.45-24.51C789.83,176.8,676,198.92,577.11,328a18.21,18.21,0,0,0-.1,22l82.31,109.34A18.19,18.19,0,0,0,680.51,465.33Z"/>
      <path class="cls-14" d="M808.41,261.45c15,19.86,31.34,39.08,53.68,55.39a247.44,247.44,0,0,0,28.78-98.39,23.17,23.17,0,0,0-18.33-24.34,247.41,247.41,0,0,0-102.51.44C779.53,220.54,793.47,241.6,808.41,261.45Z"/>
      <circle class="cls-15" cx="744.77" cy="309.37" r="38.75"/>
      <path class="cls-16" d="M777.44,283.19,711.5,336.41s38.35,33.42,62.77,5.6S777.44,283.19,777.44,283.19Z"/>
      <path class="cls-14" d="M705.15,338.69a49.51,49.51,0,1,1,69.32,9.78A49.56,49.56,0,0,1,705.15,338.69Zm69.53-51.84a37.44,37.44,0,1,0-7.4,52.43A37.49,37.49,0,0,0,774.68,286.85Z"/>
      <g>
        <ellipse class="cls-17" cx="622.79" cy="331.2" rx="16.43" ry="20.63" transform="translate(-73.97 441.16) rotate(-36.97)"/>
        <ellipse class="cls-17" cx="690.05" cy="420.54" rx="16.43" ry="20.63" transform="translate(-114.18 499.58) rotate(-36.97)"/>
      </g>
      <g>
        <path class="cls-18" d="M637.17,335.44A7.45,7.45,0,0,1,638.64,325l5.82-4.38a7.45,7.45,0,1,1,9,11.91l-5.82,4.38A7.44,7.44,0,0,1,637.17,335.44Z"/>
        <path class="cls-18" d="M690,405.56a7.46,7.46,0,0,1,1.48-10.44l5.82-4.38a7.45,7.45,0,0,1,9,11.91L700.39,407A7.45,7.45,0,0,1,690,405.56Z"/>
        <path class="cls-18" d="M659.09,373.86A22.79,22.79,0,0,1,655,355.42a7.45,7.45,0,0,1,14.58,3.09,7.88,7.88,0,0,0,7.16,9.51,7.45,7.45,0,0,1-1.07,14.87A22.77,22.77,0,0,1,659.09,373.86Z"/>
      </g>
      <g>
        <circle class="cls-7" cx="823.6" cy="250.02" r="7.4" transform="translate(-21.68 412.31) rotate(-27.75)"/>
        <circle class="cls-7" cx="800.78" cy="214.71" r="7.4"/>
        <circle class="cls-7" cx="851.22" cy="281.72" r="7.4" transform="translate(1.72 568.6) rotate(-36.97)"/>
      </g>
      <path class="cls-11" d="M558,372.79a12,12,0,0,0-2.36,16.75l16,21.23c-.73-8.8,1.37-15.56,4.7-20.59a7,7,0,0,1,11.49-.31L643,463.14l12.25-9.23L581.1,355.43Z"/>
      <path class="cls-19" d="M865.87,192.81C783.89,178,673.41,202.29,577.11,328a18.21,18.21,0,0,0-.1,22l30.51,40.53C607.59,285.16,776.21,206.06,865.87,192.81Z"/>
    </g>
    <g>
      <path class="cls-12" d="M17,678.86,3.19,652.94,75,614.83l13.82,26q8.65,16.3,4.17,31.33T72,696q-16.5,8.76-31.41,4T17,678.86Zm9.82-17.93,4.94,9.31q4.68,8.81,12.93,11.63t18.47-2.6q10.33-5.47,12.61-13.9t-2.39-17.22l-5-9.31Z"/>
      <path class="cls-12" d="M86.11,749l5.32,14.16a23.71,23.71,0,0,1-15.85.44q-8.19-2.5-14.31-10.81A29.32,29.32,0,0,1,55.43,731q1.5-11.87,12.66-20.1Q78.8,703,90.53,704.82A27.44,27.44,0,0,1,109.14,716q7.89,10.71,6.19,21.43t-12.77,18.9A24.51,24.51,0,0,1,98,759.2L74.47,727.28a10.5,10.5,0,0,0-3.93,7.89,13.42,13.42,0,0,0,2.77,9.06Q78.54,751.34,86.11,749Zm-2.39-28.15,13.54,18.36a10.28,10.28,0,0,0,3.64-6.46q.63-4-2.69-8.49A10.84,10.84,0,0,0,91,719.62,10.65,10.65,0,0,0,83.72,720.89Z"/>
      <path class="cls-12" d="M98.78,772.05l12,9a8.31,8.31,0,0,0-2.29,5.52,8.82,8.82,0,0,0,2.8,6.25,7.51,7.51,0,0,0,4.42,2.62,4.39,4.39,0,0,0,3.72-1.14Q122,792,119.05,787l-3.38-5.79q-4.62-7.61-4-13.79a16.12,16.12,0,0,1,5.25-10.58,17.24,17.24,0,0,1,14.06-4.61q8.28.79,14.71,7.65,7.61,8.11,7.52,15.82t-4.3,12.43l-11.8-8.73a8.08,8.08,0,0,0,2.08-5.17,8,8,0,0,0-2.54-5.55,7,7,0,0,0-4-2.24,4.25,4.25,0,0,0-3.85,1.09c-1.67,1.57-1.69,3.62,0,6.16l4.09,6.54q4.62,7.45,4.17,14a16.17,16.17,0,0,1-5.23,11,18.14,18.14,0,0,1-14,4.94q-8.22-.48-15.58-8.34a31.52,31.52,0,0,1-6.31-9.41,18.36,18.36,0,0,1-1.62-8.69,24.37,24.37,0,0,1,1.56-6.8A16.47,16.47,0,0,1,98.78,772.05Z"/>
      <path class="cls-12" d="M195.13,786.65l-11,12.49,8.36,7.34-10.07,11.45-8.35-7.34-14.07,16q-3.95,4.49.8,8.64a20.66,20.66,0,0,0,3.82,2.6l-9.53,10.85q-3.47-.91-7.86-4.77Q140.62,838.1,140,831t5-13.44l16.11-18.34-7.57-6.66,10.06-11.46,2.15,1.89c2.18,1.92,4.4,2.72,6.65,2.42a9.89,9.89,0,0,0,6.11-3.56l4.84-5.52Z"/>
      <path class="cls-12" d="M181.66,869.69l-13.94-10.46,34.19-45.57,13.93,10.46Zm27.56-63.3a10.24,10.24,0,0,1,8.67-11.55,9.69,9.69,0,0,1,7.47,1.88,10.06,10.06,0,0,1,4,6.76A10.12,10.12,0,0,1,220.73,815a10,10,0,0,1-7.61-2A9.7,9.7,0,0,1,209.22,806.39Z"/>
      <path class="cls-12" d="M229.72,862.78l-16.9,28-14.91-9L227.38,833l14.42,8.72-3.38,5.59a14.59,14.59,0,0,1,8.8-1.59,21.68,21.68,0,0,1,9,3q8.73,5.28,10,13.45t-3.94,16.71l-18.5,30.61-14.91-9,17-28a10.59,10.59,0,0,0,1.7-7.35c-.42-2.35-1.93-4.31-4.55-5.89a8.81,8.81,0,0,0-7.29-1.13A10.14,10.14,0,0,0,229.72,862.78Z"/>
      <path class="cls-12" d="M265.72,903.18a15.23,15.23,0,0,1,9-8.75,22.19,22.19,0,0,1,13.36-.19l13.11,3.52q4,1.14,5.35-1.91a5.45,5.45,0,0,0-.27-4.94A11.23,11.23,0,0,0,294,886.28a8.75,8.75,0,0,0-4.95,4.27l-12.6-8.93q3.39-6.29,11.7-9.07t18.8,1.83q11.85,5.22,15,13.36t-.77,16.94L310,930.18a45.76,45.76,0,0,0-2.93,8.35l-14.37-6.33a27.48,27.48,0,0,1,2.06-6.1q-7.74,5.35-17.92.87-8.3-3.65-11.11-10.46A16.33,16.33,0,0,1,265.72,903.18Zm20,14a10.83,10.83,0,0,0,7.88.59q3.8-1.2,6.24-6.77l1-2.31-10.56-2.77q-6.29-1.64-8.41,3.19a5.66,5.66,0,0,0-.14,4.44A6.75,6.75,0,0,0,285.75,917.14Z"/>
      <path class="cls-12" d="M367,880.93l-5.09,15.82,10.58,3.41-4.67,14.51-10.58-3.4-6.53,20.29q-1.83,5.69,4.17,7.61a21,21,0,0,0,4.54.86L355,953.78c-2.36.36-5.4,0-9.11-1.25q-8.4-2.7-11.75-9t-.75-14.33L340.83,906l-9.6-3.09,4.66-14.51,2.73.88c2.77.88,5.12.74,7.07-.44a9.88,9.88,0,0,0,4.18-5.7l2.25-7Z"/>
      <path class="cls-12" d="M387.64,962.47l-16.94-4.05L383.94,903l16.95,4.06Zm.13-69a10.2,10.2,0,0,1,11-15.3,10.06,10.06,0,0,1,6.39,4.59,10.12,10.12,0,0,1-3.36,14A10,10,0,0,1,394,898,9.69,9.69,0,0,1,387.77,893.44Z"/>
      <path class="cls-12" d="M441.14,912.41q12.84,1.76,20.27,11.32t5.65,22.64q-1.79,13.07-11.51,20.36T433,972.27a29.48,29.48,0,0,1-20.19-11.43q-7.49-9.69-5.71-22.64T418.64,918A29.61,29.61,0,0,1,441.14,912.41Zm-6,44a12.55,12.55,0,0,0,9.53-2.4q4.19-3.13,5.12-10c.61-4.54-.14-8.18-2.28-10.9a13.14,13.14,0,0,0-18-2.39q-4.25,3.12-5.16,9.82t2.33,10.9A12.47,12.47,0,0,0,435.15,956.37Z"/>
      <path class="cls-12" d="M498.6,943l0,32.67H481.16l0-57H498v6.53a14.59,14.59,0,0,1,6.7-5.9,21.47,21.47,0,0,1,9.23-2.11q10.2,0,15.48,6.36t5.26,16.34v35.76H517.27V942.85a10.5,10.5,0,0,0-2.35-7.17Q512.58,933,508,933a8.82,8.82,0,0,0-6.82,2.81A10.17,10.17,0,0,0,498.6,943Z"/>
      <path class="cls-12" d="M638.65,960.5,588,970.29,572.57,890.5l50.53-9.77,3.25,16.76-32.76,6.34L596.53,919l29.72-5.74,3,15.64-29.71,5.75,3,15.3,32.86-6.35ZM615,861.05l-14,18.12-15.19,2.94L594.61,865Z"/>
      <path class="cls-12" d="M676.82,949.66l-16.31,6.12-20-53.34,15.57-5.83,2.29,6.11a15,15,0,0,1,4.29-8,21.92,21.92,0,0,1,8.16-5.5q11.48-4.32,18.92,2.45,2.65-10.56,13.38-14.58a21.75,21.75,0,0,1,16-.18q7.59,3,11.43,13.16l13,34.56-15.77,5.92-11.6-30.91a10.37,10.37,0,0,0-4.59-5.68q-3.09-1.72-7.27-.15a8.87,8.87,0,0,0-5.55,5.14,10.06,10.06,0,0,0,.06,7.32l11.56,30.81-16.1,6-11.6-30.91a10.14,10.14,0,0,0-4.64-5.67c-2.09-1.13-4.54-1.17-7.33-.13a8.71,8.71,0,0,0-5.43,5.11,10.2,10.2,0,0,0,.1,7.43Z"/>
      <path class="cls-12" d="M756.73,849.55q11.21-6.49,22.95-3.51T798,860.43q6.62,11.4,3.42,23.13t-14.4,18.24a29.45,29.45,0,0,1-22.95,3.38q-11.85-3.06-18.42-14.36t-3.31-23.06A29.59,29.59,0,0,1,756.73,849.55ZM779,887.92a12.48,12.48,0,0,0,6-7.75q1.38-5-2.07-11t-8.49-7.2a13.15,13.15,0,0,0-15.68,9.17c-.95,3.38-.3,7,2,10.92s5.11,6.29,8.54,7.17A12.43,12.43,0,0,0,779,887.92Z"/>
      <path class="cls-12" d="M798.8,803.67,808.68,817l9-6.61,9.06,12.26-8.94,6.61,12.67,17.14q3.55,4.8,8.62,1a20.88,20.88,0,0,0,3.34-3.19L851,855.91c-1.09,2.14-3.19,4.36-6.33,6.68q-7.1,5.25-14.13,4.31t-12.07-7.75l-14.52-19.63-8.11,6-9.06-12.26,2.3-1.71c2.34-1.72,3.59-3.72,3.77-6a9.92,9.92,0,0,0-2.19-6.72l-4.36-5.9Z"/>
      <path class="cls-12" d="M821.09,794.06a10.22,10.22,0,0,1-9.46-10.91,9.66,9.66,0,0,1,3.41-6.91,10.07,10.07,0,0,1,7.46-2.52A10.12,10.12,0,0,1,832,784.64a10,10,0,0,1-3.55,7A9.71,9.71,0,0,1,821.09,794.06Zm56,40.32L864,845.79l-37.33-43,13.17-11.42Z"/>
      <path class="cls-12" d="M867.55,761.75q8.88-9.42,21-9.89t21.69,8.57q9.6,9,9.86,21.2t-8.61,21.58a29.5,29.5,0,0,1-21,9.77q-12.23.43-21.73-8.53T859,783.28A29.52,29.52,0,0,1,867.55,761.75Zm32.26,30.44a12.49,12.49,0,0,0,3.59-9.14q-.12-5.24-5.11-9.95t-10.19-4.49a13.16,13.16,0,0,0-12.43,13.26q.08,5.26,5,9.91c3.28,3.09,6.69,4.58,10.23,4.44A12.42,12.42,0,0,0,899.81,792.19Z"/>
      <path class="cls-12" d="M925.82,732.76l26.57,19-10.14,14.17-46.33-33.16,9.81-13.7,5.31,3.8a14.68,14.68,0,0,1-.9-8.89,21.61,21.61,0,0,1,3.65-8.73q5.94-8.29,14.18-8.89t16.35,5.22l29.09,20.82-10.14,14.17L936.61,717.5a10.51,10.51,0,0,0-7.2-2.26c-2.37.23-4.45,1.58-6.22,4.07a8.81,8.81,0,0,0-1.69,7.18A10.17,10.17,0,0,0,925.82,732.76Z"/>
      <path class="cls-12" d="M967.55,701l4.79-14.24a8.27,8.27,0,0,0,6,.46c2-.59,3.72-2.13,5.07-4.61a7.47,7.47,0,0,0,1.11-5,4.36,4.36,0,0,0-2.24-3.19q-3-1.65-6.82,2.67l-4.44,5q-5.79,6.75-11.85,8.15a16.09,16.09,0,0,1-11.68-1.7,17.2,17.2,0,0,1-8.77-11.92q-1.81-8.11,2.69-16.36,5.34-9.75,12.69-12.07t13.15.21l-4.63,13.93a7.41,7.41,0,0,0-10,3.78,7,7,0,0,0-.88,4.48,4.24,4.24,0,0,0,2.23,3.32q3,1.65,5.87-1.89l4.94-5.92q5.64-6.71,12-8.32a16.15,16.15,0,0,1,12.1,1.53,18.11,18.11,0,0,1,9.05,11.75q2.11,7.95-3.06,17.4a31.78,31.78,0,0,1-7,8.93,18.27,18.27,0,0,1-7.75,4.25,24.38,24.38,0,0,1-7,.64A16.81,16.81,0,0,1,967.55,701Z"/>
    </g>
  </g>
</svg>
